<?xml version="1.0" standalone="no"?>
<!DOCTYPE svg PUBLIC "-//W3C//DTD SVG 20010904//EN"
 "http://www.w3.org/TR/2001/REC-SVG-20010904/DTD/svg10.dtd">
<svg version="1.0" xmlns="http://www.w3.org/2000/svg"
 width="980.000000pt" height="980.000000pt" viewBox="0 0 980.000000 980.000000"
 preserveAspectRatio="xMidYMid meet">
<metadata>
Created by potrace 1.15, written by Peter Selinger 2001-2017
</metadata>
<g transform="translate(0.000000,980.000000) scale(0.100000,-0.100000)"
fill="#757373" stroke="none">
<path d="M9155 9771 c-22 -10 -58 -38 -80 -62 -29 -31 -252 -440 -747 -1369
-388 -729 -718 -1349 -733 -1379 -26 -52 -26 -55 -8 -65 61 -37 1128 -505
1134 -499 5 5 196 526 425 1158 228 633 468 1294 532 1470 104 286 117 327
117 385 0 85 -21 127 -104 210 -75 75 -153 120 -261 149 -96 27 -219 28 -275
2z"/>
<path d="M489 8300 c-271 -33 -488 -282 -489 -561 0 -71 32 -196 67 -262 38
-72 164 -195 239 -235 258 -135 573 -49 735 201 77 119 107 285 75 419 -68
290 -331 473 -627 438z"/>
<path d="M2177 7920 c-108 -28 -201 -106 -251 -210 -27 -58 -31 -75 -31 -155
0 -80 4 -97 32 -157 39 -82 100 -145 179 -184 53 -26 69 -29 159 -29 90 0 106
3 158 28 74 37 147 110 184 184 25 52 28 68 28 158 0 89 -3 106 -28 157 -62
125 -182 206 -319 213 -40 3 -90 0 -111 -5z"/>
<path d="M6592 6590 c-388 -55 -734 -296 -901 -629 -18 -34 -31 -65 -29 -66
15 -16 3583 -1594 3589 -1588 4 4 18 42 32 83 199 587 -62 1190 -630 1461
-120 57 -581 265 -788 356 -742 327 -757 333 -895 364 -99 22 -288 32 -378 19z"/>
<path d="M1900 6405 c-193 -41 -357 -132 -496 -276 -284 -295 -351 -705 -173
-1063 145 -292 426 -488 754 -526 111 -13 190 -8 314 21 333 77 610 362 698
715 25 105 23 324 -6 429 -88 328 -339 583 -668 681 -109 33 -317 42 -423 19z"/>
<path d="M5337 5292 c-19 -26 -53 -76 -77 -112 -306 -460 -682 -788 -1215
-1061 -563 -288 -1260 -497 -1920 -574 -71 -8 -227 -20 -345 -25 -263 -13
-337 -23 -398 -55 -59 -31 -80 -49 -125 -108 -86 -112 -98 -260 -34 -390 91
-183 650 -763 1072 -1113 1062 -880 2490 -1517 3953 -1764 265 -45 471 -70
623 -77 121 -5 144 -3 205 15 115 35 167 81 298 260 453 623 931 1516 1302
2433 131 325 352 934 342 944 -2 2 -155 56 -341 120 -186 64 -344 118 -351
121 -13 5 -21 -14 -214 -541 -328 -892 -784 -1808 -1220 -2451 -101 -149 -79
-144 -413 -89 -442 74 -766 139 -784 157 -3 3 55 95 128 204 222 330 393 607
512 828 59 111 148 316 140 324 -3 3 -42 -29 -87 -70 -364 -328 -763 -611
-1083 -768 -254 -124 -385 -163 -550 -164 -145 0 -215 21 -415 129 -85 45
-245 126 -354 179 -110 53 -201 98 -204 100 -2 3 42 58 98 123 135 155 250
303 342 438 72 104 148 242 148 265 0 6 -33 -16 -74 -49 -220 -180 -483 -312
-798 -401 -152 -43 -200 -48 -252 -26 -74 31 -556 408 -756 591 -105 97 -127
121 -113 127 10 4 86 19 168 33 1125 191 2124 639 2793 1253 102 94 264 271
355 390 73 95 327 467 327 479 0 4 -71 47 -158 95 -86 48 -232 130 -324 182
l-167 94 -34 -46z"/>
</g>
</svg>
