<svg height="486pt" viewBox="-51 0 486 486.79877" width="486pt" xmlns="http://www.w3.org/2000/svg">

<path fill="#708656" d="m86.695312 128.304688 8.28125 30.910156c8.007813 29.886718 38.742188 47.613281 68.621094 39.582031l20.800782-5.597656v117.597656h16v-117.597656l20.800781 5.597656c29.875 8.011719 60.585937-9.714844 68.59375-39.589844l8.277343-30.914062c1.144532-4.265625-1.386718-8.65625-5.65625-9.796875l-30.902343-8.28125c-23.238281-6.167969-47.820313 3.160156-61.113281 23.191406v-18.015625c9.722656-6.144531 32-23.398437 32-52.59375 0-36.519531-34.933594-54.398437-36.421876-55.15625-2.253906-1.125-4.902343-1.125-7.152343 0-1.488281.757813-36.425781 18.636719-36.425781 55.15625 0 29.195313 22.28125 46.449219 32 52.59375v18.007813c-13.277344-20.066407-37.894532-29.40625-61.144532-23.199219l-30.902344 8.28125c-2.054687.546875-3.808593 1.890625-4.867187 3.734375-1.0625 1.84375-1.347656 4.035156-.789063 6.089844zm121.703126 25.695312c5.714843-21.347656 27.648437-34.015625 48.992187-28.296875l23.199219 6.214844-6.207032 23.199219c-5.757812 21.3125-27.660156 33.953124-48.992187 28.28125l-23.199219-6.207032zm-40-91.203125c0-20.636719 16.527343-33.804687 24-38.695313 7.480468 4.898438 24 18.066407 24 38.695313 0 20.632813-16.527344 33.808594-24 38.699219-7.480469-4.898438-24-18.066406-24-38.699219zm-41 62.875c21.347656-5.664063 43.257812 7 49 28.328125l6.207031 23.199219-23.199219 6.207031c-21.328125 5.667969-43.230469-6.972656-48.992188-28.28125l-6.207031-23.199219zm0 0"/>
<path fill="#708656" d="m16.398438 239.023438h-16v231.773437c0 4.421875 3.582031 8 8 8h152v-16h-144zm0 0"/>
<path fill="#708656" d="m56.398438 262.796875h16v16h-16zm0 0"/>
<path fill="#708656" d="m88.398438 262.796875h64v16h-64zm0 0"/>
<path fill="#708656" d="m56.398438 294.796875h96v16h-96zm0 0"/>
<path fill="#708656" d="m56.398438 326.796875h96v16h-96zm0 0"/>
<path fill="#708656" d="m56.398438 358.796875h96v16h-96zm0 0"/>
<path fill="#708656" d="m352.398438 454.796875c4.417968 0 8-3.578125 8-8v-224c0-4.417969-3.582032-8-8-8h-136v16h128v208h-128v-112h-16v136c0 4.421875-3.582032 8-8 8-4.417969 0-8-3.578125-8-8v-136h-16v112h-128v-208h128v-16h-136c-4.417969 0-8 3.582031-8 8v224c0 4.421875 3.582031 8 8 8h136v8c0 13.257813 10.746093 24 24 24 13.253906 0 24-10.742187 24-24v-8zm0 0"/>
<path fill="#708656" d="m368.398438 239.023438v223.773437h-144v16h152c4.417968 0 8-3.578125 8-8v-231.773437zm0 0"/>
<path fill="#708656" d="m280.398438 262.796875h48v16h-48zm0 0"/>
<path fill="#708656" d="m232.398438 262.796875h32v16h-32zm0 0"/>
<path fill="#708656" d="m232.398438 294.796875h96v16h-96zm0 0"/>
<path fill="#708656" d="m232.398438 326.796875h96v16h-96zm0 0"/>
<path fill="#708656" d="m232.398438 358.796875h96v16h-96zm0 0"/>
<path fill="#708656" d="m56.398438 390.796875h96v16h-96zm0 0"/>
<path fill="#708656" d="m232.398438 390.796875h96v16h-96zm0 0"/>
<path fill="#708656" d="m320.398438 110.796875h32v16h-32zm0 0"/>
<path fill="#708656" d="m313.96875 77.949219 30.910156-8.289063 4.144532 15.457032-30.910157 8.289062zm0 0"/>
<path fill="#708656" d="m299.246094 47.867188 27.710937-16 8 13.855468-27.710937 16zm0 0"/>
<path fill="#708656" d="m277.253906 22.632812 22.632813-22.632812 11.3125 11.3125-22.632813 22.632812zm0 0"/>
<path fill="#708656" d="m73.597656 11.316406 11.316406-11.316406 22.632813 22.632812-11.316406 11.316407zm0 0"/>
<path fill="#708656" d="m49.832031 45.726562 8-13.855468 27.710938 16-8 13.859375zm0 0"/>
<path fill="#708656" d="m35.777344 85.113281 4.144531-15.453125 30.910156 8.289063-4.144531 15.453125zm0 0"/>
<path fill="#708656" d="m32.398438 110.796875h32v16h-32zm0 0"/>
<path fill="#708656" d="m35.777344 152.484375 30.910156-8.28125 4.140625 15.453125-30.910156 8.28125zm0 0"/>
<path fill="#708656" d="m49.839844 191.867188 27.714844-15.996094 7.996093 13.855468-27.710937 16zm0 0"/>
<path fill="#708656" d="m299.253906 189.726562 8-13.855468 27.710938 16-8 13.859375zm0 0"/>
<path fill="#708656" d="m313.96875 159.648438 4.144531-15.457032 30.90625 8.289063-4.144531 15.457031zm0 0"/>
</svg>